<svg width="201" height="69" viewBox="0 0 201 69" fill="none" xmlns="http://www.w3.org/2000/svg">
<path d="M68.1456 8.93286H81.14V22.5659H79.3411V21.9308H69.8599V22.5659H68.1456V8.93286ZM69.8599 20.322H79.3411V10.5629H77.4575C77.9866 10.8169 78.4099 11.1133 78.7274 11.452L78.1136 12.0871H78.8543V13.3572H76.1242C76.1877 14.1828 76.2936 14.9449 76.4205 15.6859C76.738 15.072 76.9708 14.4369 77.1401 13.7806L78.5157 14.0558C78.1559 15.3472 77.6269 16.5115 76.9285 17.5488C77.1401 18.0145 77.3729 18.2897 77.6268 18.3744C77.775 18.4167 77.902 17.9298 77.9655 16.9349C78.3252 17.2947 78.7062 17.5699 79.0871 17.8028C78.9178 19.2211 78.4522 19.9197 77.7115 19.9409C77.4999 19.9409 77.2882 19.8986 77.0554 19.7927C76.5898 19.6445 76.2089 19.3058 75.9126 18.7766C75.4047 19.2847 74.8756 19.708 74.3254 20.0679C73.9867 19.6022 73.6693 19.2423 73.3518 18.9883C73.5 18.9036 73.6481 18.7978 73.8386 18.6708C72.4206 18.8824 71.2778 19.0518 70.4101 19.2L70.2408 17.8663C71.426 17.7393 72.8651 17.5699 74.5158 17.3371L74.537 18.0992C74.7698 17.9087 75.0237 17.6546 75.2989 17.3371C75.0026 16.3845 74.791 15.0508 74.6428 13.3572H70.4101V12.0871H74.537C74.537 11.9389 74.5158 11.7272 74.4947 11.4308C74.4947 11.1345 74.4735 10.9228 74.4735 10.7958H75.9549C75.9761 11.3462 75.9973 11.7907 76.0184 12.0871H77.6692C77.2036 11.706 76.8015 11.4308 76.484 11.2615L77.2036 10.5417H69.8387V20.322H69.8599ZM74.1984 14.0347V16.9137H70.8122V14.0347H74.1984ZM72.9709 15.9611V14.9873H71.955V15.9611H72.9709Z" fill="black"/>
<path d="M97.3725 9.27227L98.3461 9.84385C97.8805 11.241 97.309 12.4053 96.5895 13.3368C97.2032 14.0354 97.9228 14.5646 98.727 14.9668C98.3461 15.2844 97.9863 15.7077 97.69 16.237C97.69 16.2581 97.6688 16.2793 97.6688 16.3005C97.0339 15.9406 96.4625 15.5172 95.9757 15.0303V15.8559H90.9812V15.1997C90.4733 15.6654 89.9442 16.0676 89.4151 16.3851C89.2034 16.0041 88.9283 15.6442 88.5897 15.3055C88.759 15.8983 88.8437 16.5122 88.8437 17.1896C88.8437 18.2057 88.632 18.862 88.2511 19.1583C88.0818 19.3065 87.849 19.4124 87.5104 19.4759C87.2564 19.497 87.0024 19.5182 86.7273 19.497C86.7273 18.989 86.6427 18.5233 86.4522 18.0999V22.5242H84.8861V8.95473H87.722L87.9548 8.89123L89.0341 9.50513C88.886 10.1402 88.6955 10.8811 88.4839 11.7702C89.3304 10.8176 89.9653 9.69565 90.3674 8.34082L91.7642 8.61603C91.6372 8.97591 91.5314 9.27227 91.4468 9.48397H92.4626L92.7377 9.42046L93.2033 9.58981C93.2033 9.56864 93.1398 9.31462 93.034 8.82772L94.452 8.55251C94.7271 9.86501 95.1504 11.0505 95.7218 12.0878C96.0181 11.5586 96.2509 11.0717 96.399 10.6271H95.0446V9.35696H97.0551L97.3725 9.27227ZM86.4522 10.5636V18.0575C86.558 18.0575 86.7062 18.0787 86.8755 18.0787C87.0025 18.0787 87.1083 18.0152 87.1929 17.9517C87.3199 17.8035 87.3834 17.4648 87.3834 16.9779C87.3834 15.8983 87.1083 14.9245 86.6003 14.0354C86.8755 12.9346 87.1083 11.7914 87.2987 10.5848H86.4522V10.5636ZM88.5262 15.1362C89.1611 14.7975 89.7325 14.3317 90.2193 13.8025C89.9865 13.5485 89.669 13.2944 89.2881 13.0192C89.2458 13.0616 89.1823 13.1251 89.0976 13.1886C89.013 13.2733 88.9495 13.3368 88.9072 13.3579C88.7167 13.1463 88.5051 12.9557 88.2511 12.7652C88.2088 12.9134 88.1664 13.1039 88.0818 13.3579C88.0183 13.5908 87.976 13.7602 87.9548 13.8448C88.2088 14.2682 88.3992 14.7128 88.5262 15.1362ZM90.0288 18.7561L91.5738 19.1583C91.1505 20.238 90.5579 21.1906 89.796 21.995C89.7749 22.0373 89.7325 22.0797 89.7114 22.1009C89.013 21.6351 88.5474 21.3599 88.3357 21.2753C89.0765 20.5555 89.6267 19.7087 90.0288 18.7561ZM97.4572 18.2481H94.3673V20.8519C94.3673 21.487 94.2192 21.9315 93.9441 22.122C93.8806 22.1644 93.7959 22.2067 93.7113 22.249C93.3303 22.4184 92.6319 22.5242 91.6161 22.5242C91.5526 22.122 91.3621 21.614 91.0658 21.0001C91.4468 21.0001 91.8912 21.0212 92.4203 21.0212C92.5684 21.0001 92.6531 20.9154 92.6531 20.8095V18.2269H89.5632V16.7662H97.4572V18.2481ZM90.8542 12.9769C90.96 12.8287 91.0658 12.6594 91.1716 12.4688C90.8965 12.236 90.5791 12.0031 90.2405 11.7914C90.1346 11.9608 90.0077 12.109 89.9018 12.2571C90.2828 12.5112 90.6002 12.744 90.8542 12.9769ZM91.9759 10.6694H90.9389C90.9177 10.7118 90.8965 10.7541 90.8542 10.8388C90.8119 10.9235 90.7907 10.9658 90.7695 11.0082C91.1082 11.1987 91.4044 11.3892 91.6584 11.5586C91.8066 11.2198 91.9124 10.9235 91.9759 10.6694ZM91.6796 14.3952H95.3832C94.6213 13.4003 93.9864 12.1513 93.4996 10.6694C93.0975 12.109 92.4838 13.3579 91.6796 14.3952ZM95.0869 19.37L96.4625 18.6714C97.3937 19.7087 98.0074 20.5767 98.3461 21.2541L96.8858 22.0373C96.5683 21.3388 95.9757 20.4497 95.0869 19.37Z" fill="black"/>
<path d="M101.478 16.3855V14.6073H102.706V16.4278C102.706 18.5659 102.473 20.1748 101.986 21.2756C101.69 20.9581 101.351 20.6829 100.949 20.45C101.309 19.5609 101.478 18.206 101.478 16.3855ZM106.896 13.8452H104.907V22.5246H103.383V13.8452H101.246V12.2575H106.896V13.8452ZM106.685 9.23024V10.8179H101.626V9.23024H106.685ZM106.748 14.6073V19.9419H105.563V14.6073H106.748ZM113.034 20.8522H113.605C113.732 20.8522 113.817 20.7675 113.859 20.577C113.901 20.3653 113.944 19.8996 113.944 19.1798C114.303 19.455 114.769 19.6667 115.34 19.8149C115.362 19.8149 115.383 19.8361 115.383 19.8361C115.298 21.0851 115.065 21.8683 114.684 22.1647C114.473 22.3341 114.176 22.4187 113.795 22.4187H112.716C111.975 22.4187 111.51 22.2282 111.319 21.8472C111.171 21.5508 111.108 21.1062 111.108 20.4712V17.698H110.325C110.155 19.2433 109.711 20.4077 108.991 21.2121C108.483 21.7625 107.785 22.2282 106.917 22.5881C106.748 22.1647 106.452 21.7413 106.007 21.3179C105.965 21.2756 105.923 21.2333 105.88 21.1909C107.108 20.7675 107.912 20.0689 108.293 19.1163C108.441 18.7353 108.547 18.2696 108.61 17.7192H107.616V9.12439H114.346V17.7192H112.737V20.4712C112.737 20.7464 112.78 20.8946 112.864 20.9157C112.949 20.8522 112.991 20.8522 113.034 20.8522ZM109.288 10.4792V11.4954H112.631V10.4792H109.288ZM109.288 12.829V13.8452H112.631V12.829H109.288ZM109.288 15.2V16.2161H112.631V15.2H109.288Z" fill="black"/>
<path d="M122.514 18.3539V19.8357C122.62 19.8357 123.551 19.7299 125.287 19.5182L125.329 21.1059C125.012 21.1482 122.62 21.4446 118.155 22.0373C118.091 22.0373 118.049 22.0373 117.985 22.0585L117.774 20.3014C119.128 20.1744 120.102 20.0897 120.737 20.0262V18.3539H118.282V16.7238H120.737V15.496H118.261V8.99702H125.012V15.496H122.493V16.7238H125.033V18.3539H122.514ZM119.742 10.4365V11.5585H120.885V10.4365H119.742ZM119.742 12.9133V14.0565H120.885V12.9133H119.742ZM123.509 11.5797V10.4577H122.409V11.5797H123.509ZM123.509 14.0565V12.9133H122.409V14.0565H123.509ZM130.98 13.9295L132.186 14.1835C131.869 15.75 131.551 17.0414 131.17 18.0363L129.71 17.74C129.858 17.2531 130.006 16.5756 130.176 15.6865H129.202V20.5555C129.202 21.3387 129.012 21.868 128.609 22.122C128.546 22.1432 128.483 22.1855 128.44 22.2067C128.038 22.3972 127.276 22.5031 126.155 22.5031C126.091 22.5031 126.028 22.5031 125.964 22.5031C125.901 21.995 125.731 21.4022 125.435 20.7248C126.155 20.7672 126.705 20.7883 127.107 20.746C127.297 20.7248 127.403 20.6401 127.424 20.5131V15.6865H125.414V13.9718H128.567C127.763 13.3791 126.811 12.8287 125.774 12.2994L126.895 11.1775C127.213 11.3256 127.657 11.5373 128.186 11.8125C128.652 11.3256 128.969 10.9023 129.202 10.5847H125.541V8.95468H130.408L130.789 8.87L131.932 9.6956C131.276 10.7541 130.472 11.7279 129.52 12.6381C130.324 13.2309 130.747 13.5061 130.747 13.5061L130.366 13.9506H130.705L130.98 13.9295Z" fill="black"/>
<path d="M35.9552 43.9699V33.4698H38.2197V43.9699H35.9552Z" fill="black"/>
<path d="M41.5851 43.9688V33.4688H43.8919L47.1722 39.0575L48.2939 41.3226H48.3786C48.1881 39.502 48.0823 38.2742 48.0823 37.6391V33.4688H50.2198V43.9688H47.9341L44.6749 38.3589L43.5321 36.1149H43.4475C43.4686 36.3055 43.4898 36.6018 43.5321 37.004C43.6591 38.253 43.7226 39.1633 43.7226 39.7772V43.99H41.5851V43.9688Z" fill="black"/>
<path d="M55.8276 43.9687V35.2257H52.6531V33.4899H61.2666V35.2257H58.0709V43.9687H55.8276Z" fill="black"/>
<path d="M63.7217 43.9688V33.4688H70.6421V35.2046H65.9862V37.618H69.9437V39.375H65.9862V42.1905H70.7903V43.9476H63.7217V43.9688Z" fill="black"/>
<path d="M82.3458 43.9688H79.8274L77.4994 39.9889H75.9333V43.9688H73.6688V33.4688H77.6052C80.3565 33.4688 81.7744 34.4849 81.8379 36.496C81.8379 36.5595 81.8379 36.6018 81.8379 36.6442C81.8379 38.126 81.1184 39.1421 79.7004 39.6714L82.3458 43.9688ZM75.9545 35.1411V38.3377H77.4148C78.875 38.2742 79.6158 37.7238 79.6581 36.6653C79.6581 35.8397 79.1925 35.3528 78.2825 35.2046C78.0285 35.1623 77.7322 35.1411 77.4148 35.1411H75.9545Z" fill="black"/>
<path d="M84.6737 43.9688V33.4688H86.9805L90.2609 39.0575L91.3825 41.3226H91.4672C91.2767 39.502 91.1709 38.2742 91.1709 37.6391V33.4688H93.3084V43.9688H91.0227L87.7636 38.3589L86.6207 36.1149H86.5361C86.5573 36.3055 86.5784 36.6018 86.6207 37.004C86.7477 38.253 86.8112 39.1633 86.8112 39.7772V43.99H84.6737V43.9688Z" fill="black"/>
<path d="M102.768 43.9688L101.985 41.2591H98.3239L97.5409 43.9688H95.2552L98.8742 33.4688H101.52L105.139 43.9688H102.768ZM98.8107 39.6502H101.498L101.16 38.5071C101.139 38.4224 100.864 37.4698 100.334 35.6492C100.271 35.4375 100.229 35.247 100.165 35.0776H100.102C99.8265 36.1573 99.5091 37.3004 99.1281 38.5071L98.8107 39.6502Z" fill="black"/>
<path d="M109.307 43.9687V35.2257H106.133V33.4899H114.746V35.2257H111.551V43.9687H109.307Z" fill="black"/>
<path d="M117.202 43.9688V33.4688H119.466V43.9688H117.202Z" fill="black"/>
<path d="M127.297 44.1806C125.667 44.1806 124.376 43.609 123.466 42.487C122.662 41.5133 122.26 40.2431 122.26 38.6977C122.26 36.7502 122.873 35.2683 124.101 34.3157C124.969 33.6383 126.048 33.2996 127.297 33.2996C128.968 33.2996 130.281 33.8711 131.191 34.9931C131.953 35.9457 132.333 37.1947 132.333 38.6977C132.333 40.603 131.741 42.0425 130.577 43.0586C129.709 43.7995 128.609 44.1806 127.297 44.1806ZM127.297 42.36C128.312 42.36 129.074 41.8943 129.561 40.9417C129.878 40.3278 130.048 39.5657 130.048 38.6766C130.048 37.1524 129.625 36.0939 128.757 35.5012C128.334 35.2048 127.847 35.0778 127.297 35.0778C126.238 35.0778 125.476 35.5647 124.99 36.5385C124.693 37.1312 124.566 37.851 124.566 38.6766C124.566 40.1584 124.969 41.2169 125.794 41.852C126.217 42.1907 126.725 42.36 127.297 42.36Z" fill="black"/>
<path d="M135.148 43.9688V33.4688H137.455L140.735 39.0575L141.857 41.3226H141.942C141.751 39.502 141.645 38.2742 141.645 37.6391V33.4688H143.783V43.9688H141.497L138.238 38.3589L137.095 36.1149H137.01C137.032 36.3055 137.053 36.6018 137.095 37.004C137.222 38.253 137.286 39.1633 137.286 39.7772V43.99H135.148V43.9688Z" fill="black"/>
<path d="M153.243 43.9688L152.46 41.2591H148.799L148.016 43.9688H145.709L149.328 33.4688H151.974L155.593 43.9688H153.243ZM149.286 39.6502H151.974L151.635 38.5071C151.614 38.4224 151.339 37.4698 150.81 35.6492C150.746 35.4375 150.704 35.247 150.64 35.0776H150.577C150.302 36.1573 149.984 37.3004 149.603 38.5071L149.286 39.6502Z" fill="black"/>
<path d="M157.54 43.9688V33.4688H159.804V42.2117H164.375V43.9688H157.54Z" fill="black"/>
<path d="M47.1294 59.7636V49.2848H50.833C53.7747 49.306 55.235 50.4068 55.2562 52.5872C55.2562 54.0267 54.6001 55.0429 53.288 55.6144C52.6107 55.9108 51.8065 56.059 50.8965 56.059H49.3939V59.7848H47.1294V59.7636ZM49.3939 54.3866H50.7483C52.2721 54.3654 53.034 53.7727 53.034 52.566C53.034 51.7193 52.6107 51.2112 51.743 51.0207C51.4467 50.9572 51.087 50.9148 50.6637 50.9148H49.3939V54.3866Z" fill="black"/>
<path d="M57.902 59.7608V49.282H64.8224V51.0179H60.1665V53.4312H64.124V55.1882H60.1665V58.0038H64.9917V59.7608H57.902Z" fill="black"/>
<path d="M76.5474 59.7608H74.0289L71.7009 55.781H70.1348V59.7608H67.8704V49.282H71.8068C74.558 49.282 75.976 50.2981 76.0395 52.3092C76.0395 52.3727 76.0395 52.415 76.0395 52.4574C76.0395 53.9392 75.3199 54.9554 73.9019 55.4846L76.5474 59.7608ZM70.1348 50.9332V54.1298H71.5951C73.0554 54.0663 73.7961 53.5159 73.8385 52.4574C73.8385 51.6318 73.3729 51.1449 72.4628 50.9967C72.2089 50.9544 71.9126 50.9332 71.5951 50.9332H70.1348Z" fill="black"/>
<path d="M82.2397 59.9515C80.8006 59.9515 79.5308 59.5281 78.4515 58.6814C78.3457 58.5967 78.2399 58.4908 78.134 58.4273L79.425 56.9666C80.2292 57.6652 81.1181 58.0463 82.0493 58.1098C82.1339 58.1098 82.2186 58.131 82.2821 58.131C83.2556 58.131 83.8482 57.8346 84.0175 57.263C84.0386 57.1572 84.0598 57.0513 84.0598 56.9243C84.0598 56.5009 83.827 56.1834 83.3402 55.9294C83.1709 55.8447 82.8535 55.7177 82.3667 55.506L80.843 54.9132C79.3403 54.3205 78.5785 53.3679 78.5573 52.0977C78.5573 51.1662 78.9806 50.383 79.8271 49.7902C80.5467 49.3033 81.4355 49.0493 82.4514 49.0493C83.7 49.0493 84.7794 49.4092 85.6894 50.1501C85.7952 50.2348 85.8799 50.3195 85.9645 50.4041L84.8429 51.7167C84.1021 51.1451 83.2979 50.8487 82.4514 50.8487C81.626 50.8487 81.0969 51.0816 80.8853 51.5473C80.843 51.6743 80.8006 51.8013 80.8006 51.9495C80.8006 52.3517 81.0758 52.6904 81.6472 52.9656C81.8165 53.0292 82.1128 53.1562 82.5784 53.3255L84.0598 53.8971C85.3085 54.384 86.028 55.0826 86.2608 56.014C86.3031 56.2469 86.3455 56.4798 86.3455 56.755C86.3455 57.7287 85.9222 58.512 85.0756 59.1048C84.3561 59.6763 83.4037 59.9515 82.2397 59.9515Z" fill="black"/>
<path d="M88.97 59.7608V49.282H92.6736C95.6153 49.3032 97.0756 50.404 97.0967 52.5844C97.0967 54.0239 96.4407 55.0401 95.1285 55.6116C94.4513 55.908 93.6471 56.0562 92.7371 56.0562H91.2345V59.782H88.97V59.7608ZM91.2345 54.3838H92.5889C94.1127 54.3626 94.8746 53.7699 94.8746 52.5632C94.8746 51.7165 94.4513 51.2084 93.5836 51.0179C93.2873 50.9544 92.9275 50.912 92.5043 50.912H91.2345V54.3838Z" fill="black"/>
<path d="M99.7418 59.7608V49.282H106.662V51.0179H102.006V53.4312H105.964V55.1882H102.006V58.0038H106.832V59.7608H99.7418Z" fill="black"/>
<path d="M114.323 59.9514C112.778 59.9514 111.53 59.4645 110.577 58.4695C109.625 57.4745 109.159 56.1832 109.159 54.5532C109.159 52.7538 109.752 51.3566 110.937 50.3193C111.889 49.4937 113.053 49.0703 114.429 49.0703C115.678 49.0703 116.757 49.4937 117.667 50.3616C117.688 50.3828 117.709 50.404 117.731 50.4252L116.545 51.7588C115.91 51.1873 115.212 50.8909 114.471 50.8909C113.455 50.8909 112.672 51.3143 112.122 52.1399C111.699 52.7749 111.487 53.5582 111.487 54.5108C111.487 56.0139 111.932 57.0723 112.821 57.6862C113.286 58.0038 113.836 58.1731 114.45 58.1731C115.318 58.1731 116.08 57.8133 116.778 57.157L117.963 58.4483C116.969 59.4433 115.783 59.9514 114.323 59.9514Z" fill="black"/>
<path d="M122.578 59.7608V51.0179H119.403V49.282H128.017V51.0179H124.821V59.7608H122.578Z" fill="black"/>
<path d="M130.45 59.7608V49.282H132.715V59.782H130.45V59.7608Z" fill="black"/>
<path d="M138.069 59.7608L134.619 49.282H136.989L138.471 54.3838C138.577 54.7437 138.725 55.2941 138.915 56.0138C139.106 56.7971 139.275 57.3898 139.402 57.7921H139.487C139.614 57.411 139.762 56.8606 139.952 56.1409C140.164 55.3788 140.333 54.8072 140.439 54.405L141.899 49.3031H144.185L140.735 59.8031H138.069V59.7608Z" fill="black"/>
<path d="M146.09 59.7608V49.282H153.011V51.0179H148.355V53.4312H152.312V55.1882H148.355V58.0038H153.18V59.7608H146.09Z" fill="black"/>
<path d="M32.4634 61.2007C32.7174 59.9517 32.7597 58.7451 32.6328 57.6443C32.4423 55.993 31.9344 54.5747 31.2148 53.4316C30.4952 52.2884 29.6064 51.3993 28.4424 50.7854C27.871 52.0979 27.2572 54.0031 27.5747 56.0989C27.8498 57.9195 28.781 59.2108 29.7969 59.9729C30.8127 60.7985 31.8709 61.0949 32.4634 61.2007Z" fill="black"/>
<path d="M32.506 62.9153C32.1674 63.9314 31.6594 64.8629 30.9822 65.6673C29.5219 67.3609 27.3844 68.123 25.3527 68.25C23.3211 68.4193 21.4587 67.9536 20.464 67.6361C20.5275 67.4032 20.6756 67.0433 20.9084 66.5988C21.247 65.9425 21.7973 65.1592 22.6015 64.4395C23.4057 63.7197 24.4427 63.0846 25.776 62.6612C26.5802 62.4284 27.3633 62.259 28.0617 62.2379C28.7812 62.1743 29.4161 62.2167 30.0087 62.3014C31.1727 62.4284 32.0827 62.7459 32.506 62.9153Z" fill="black"/>
<path d="M23.7862 47.5674C24.7173 48.4565 25.3522 49.4938 25.712 50.764C25.9025 51.399 26.0083 52.0764 26.0506 52.7962C26.093 53.516 26.0506 54.2781 25.9448 55.0613C25.7755 56.141 25.4157 57.2418 24.8443 58.3426C24.5904 58.2156 24.2306 58.0039 23.8285 57.7075C23.4475 57.39 23.0454 57.0089 22.6645 56.5008C21.9449 55.4847 21.3735 54.0664 21.6063 52.2881C21.8603 50.2771 22.9396 48.647 23.7862 47.5674Z" fill="black"/>
<path d="M24.591 60.1208C24.0196 60.9888 23.3001 61.7297 22.4535 62.3013C20.6546 63.5079 18.4536 63.6773 16.5278 63.2962C14.6019 62.9152 12.9512 62.0472 12.1046 61.4757C12.2316 61.2852 12.4644 60.9676 12.7818 60.6289C13.7342 59.5705 15.6389 58.258 18.3478 58.1521C19.1732 58.1098 19.9139 58.1945 20.5912 58.3215C20.9298 58.385 21.2472 58.4697 21.5435 58.5755C21.8398 58.6602 22.1361 58.766 22.39 58.8719C22.9191 59.1047 23.3847 59.3376 23.7445 59.5705C24.1254 59.7821 24.4217 59.9938 24.591 60.1208Z" fill="black"/>
<path d="M20.4639 43.7357C21.1412 44.8154 21.5009 45.9585 21.5644 47.2498C21.5856 47.5674 21.5644 47.9061 21.5433 48.2448C21.5221 48.5835 21.4798 48.9222 21.4163 49.2609C21.2893 49.9595 21.0777 50.6581 20.7814 51.3779C20.3581 52.3516 19.7655 53.3043 18.9825 54.2145C18.7709 54.024 18.4746 53.7488 18.1783 53.3678C17.882 52.9867 17.6069 52.521 17.3741 51.9706C16.9296 50.8486 16.7392 49.3879 17.3529 47.7367C18.0301 45.8738 19.4269 44.5613 20.4639 43.7357Z" fill="black"/>
<path d="M18.0937 55.6543C17.3318 56.3317 16.5065 56.8398 15.5753 57.1574C15.0885 57.3267 14.5806 57.4325 14.0727 57.4961C13.5647 57.5384 13.078 57.5384 12.5912 57.4749C11.5965 57.369 10.6653 57.0727 9.79764 56.6705C8.9511 56.2682 8.16806 55.7602 7.53315 55.2733C6.91941 54.7652 6.41149 54.2995 6.07288 53.9396C6.24218 53.7914 6.51731 53.5374 6.89825 53.3045C8.06224 52.5213 10.1574 51.738 12.7182 52.2884C14.2843 52.6059 15.4483 53.2834 16.3583 53.9396C16.8027 54.2783 17.1625 54.617 17.48 54.9134C17.7339 55.2309 17.9456 55.5061 18.0937 55.6543Z" fill="black"/>
<path d="M17.9884 38.8457C18.3694 40.01 18.4329 41.1955 18.1789 42.4233C18.1154 42.7197 18.0308 43.0372 17.9249 43.3548C17.8191 43.6723 17.7133 43.9687 17.5652 44.2862C17.2689 44.9002 16.8879 45.5352 16.4435 46.128C15.8298 46.9324 15.0256 47.6945 14.052 48.3296C13.9039 48.0967 13.6923 47.758 13.5018 47.3346C13.3325 46.9112 13.1632 46.4032 13.0785 45.8104C12.9304 44.6461 13.0997 43.2278 14.0732 41.8306C15.1737 40.264 16.8033 39.3749 17.9884 38.8457Z" fill="black"/>
<path d="M12.9086 49.7058C12.0409 50.1504 11.1308 50.4256 10.1785 50.5103C9.16264 50.5949 8.18912 50.4468 7.30026 50.1081C6.39023 49.7905 5.58602 49.2824 4.86646 48.7109C4.14691 48.1393 3.57549 47.4831 3.06757 46.8903C2.60198 46.2764 2.2422 45.7048 2.0094 45.3026C2.4115 45.0697 3.32153 44.6675 4.50669 44.5405C5.713 44.4135 7.13095 44.5617 8.65472 45.2814C9.35311 45.6201 9.92453 46.0012 10.4324 46.4246C10.6864 46.6363 10.898 46.848 11.1097 47.0597C11.3213 47.2714 11.5118 47.483 11.6811 47.6947C11.8504 47.9064 11.9985 48.1181 12.1255 48.3087C12.2737 48.4992 12.3795 48.6897 12.4853 48.8591C12.6969 49.2189 12.8451 49.5153 12.9086 49.7058Z" fill="black"/>
<path d="M16.8024 33.8286C16.9082 35.0353 16.6754 36.1784 16.1675 37.2792C15.8923 37.8296 15.5749 38.3588 15.1516 38.8881C14.7284 39.4173 14.2416 39.9042 13.6702 40.3487C12.9083 40.9627 11.9771 41.4919 10.9189 41.8729C10.8343 41.6189 10.7285 41.259 10.6438 40.8145C10.5803 40.3699 10.5592 39.8407 10.6015 39.2903C10.665 38.7187 10.8343 38.126 11.1094 37.5332C11.4269 36.9193 11.829 36.3266 12.4427 35.7974C13.8607 34.5272 15.5537 34.0615 16.8024 33.8286Z" fill="black"/>
<path d="M9.39546 42.6564C8.46427 42.8681 7.55424 42.9104 6.64421 42.7622C5.67069 42.5929 4.80299 42.2118 4.04111 41.6826C3.25806 41.1534 2.62316 40.4971 2.09407 39.7985C1.54382 39.0999 1.16288 38.3378 0.845429 37.6604C0.549141 36.983 0.35867 36.3691 0.231689 35.9245C0.443324 35.861 0.781939 35.7975 1.18404 35.7551C1.84011 35.6916 2.68665 35.7128 3.61784 35.9668C4.54903 36.2209 5.50139 36.6866 6.45374 37.4699C7.02515 37.9568 7.46958 38.4648 7.85053 38.9517C8.041 39.2058 8.18914 39.4598 8.33729 39.7138C8.48543 39.9679 8.61241 40.2007 8.71823 40.4336C8.92986 40.9205 9.07801 41.3651 9.20499 41.7461C9.28964 42.1272 9.35313 42.4447 9.39546 42.6564Z" fill="black"/>
<path d="M16.8453 28.6001C16.676 29.7856 16.1892 30.8017 15.4485 31.7331C14.7078 32.6434 13.6708 33.469 12.4009 34.0618C11.5332 34.464 10.5597 34.7392 9.45923 34.845C9.4169 34.3158 9.39574 33.3844 9.77668 32.3471C9.96715 31.839 10.2634 31.3098 10.6655 30.8017C11.0888 30.3148 11.6179 29.8491 12.3163 29.468C13.9247 28.6001 15.6178 28.5366 16.8453 28.6001Z" fill="black"/>
<path d="M7.74492 34.9296C6.8349 34.9084 5.96719 34.7179 5.16298 34.358C3.42758 33.5959 2.28475 32.0717 1.60752 30.5052C1.26891 29.7219 1.07844 28.9387 0.951457 28.2189C0.84564 27.5203 0.78215 26.9064 0.760986 26.4407C1.20542 26.4407 2.13661 26.5042 3.17362 26.9276C4.21063 27.351 5.33229 28.0919 6.24232 29.362C7.08886 30.5264 7.4698 31.6907 7.63911 32.6856C7.78725 33.6806 7.78725 34.5273 7.74492 34.9296Z" fill="black"/>
<path d="M18.1152 23.4558C17.692 24.5355 16.9936 25.4034 16.0836 26.102C15.1735 26.8006 14.0095 27.3298 12.6974 27.605C11.7874 27.7743 10.8139 27.8167 9.77686 27.6473C9.81918 27.3933 9.88267 27.0546 10.0097 26.6524C10.1366 26.2502 10.3694 25.8268 10.6446 25.3822C10.9408 24.9377 11.343 24.5143 11.8297 24.1332C12.3376 23.7734 12.9514 23.4558 13.6709 23.2441C15.364 22.8207 16.9513 23.1171 18.1152 23.4558Z" fill="black"/>
<path d="M8.08413 27.0544C7.23759 26.8003 6.47571 26.4193 5.79848 25.8901C4.35937 24.7469 3.63981 23.0745 3.38585 21.4657C3.13189 19.8568 3.34352 18.3326 3.53399 17.4858C3.72446 17.5282 4.02075 17.634 4.38053 17.761C5.50219 18.2268 7.15294 19.3699 7.97831 21.4868C8.5074 22.7782 8.59205 23.9425 8.5074 24.9163C8.48624 25.4032 8.40158 25.8477 8.31693 26.2076C8.25344 26.5675 8.14762 26.8639 8.08413 27.0544Z" fill="black"/>
<path d="M20.3371 18.9889C19.681 19.8991 18.8768 20.6189 17.8398 21.0634C17.3531 21.2963 16.8028 21.4868 16.1891 21.5926C15.6177 21.7197 14.9828 21.762 14.3267 21.7408C13.4378 21.6985 12.5066 21.5291 11.5754 21.1693C11.6601 20.9364 11.8082 20.6189 12.0199 20.2802C12.2315 19.9415 12.5066 19.5604 12.8876 19.2217C13.2474 18.8618 13.7129 18.5443 14.2632 18.3114C14.8134 18.0574 15.4483 17.9092 16.1891 17.8669C17.861 17.8245 19.3424 18.4596 20.3371 18.9889Z" fill="black"/>
<path d="M10.1792 19.963C9.43846 19.5396 8.80356 19.0104 8.29564 18.3541C7.19514 16.9781 6.89885 15.2422 7.00467 13.6757C7.06816 12.8924 7.23747 12.1727 7.40677 11.5164C7.59724 10.8813 7.83004 10.3521 7.99935 9.97107C8.38029 10.1616 9.12101 10.6273 9.79824 11.4106C10.4755 12.1938 11.068 13.2735 11.3008 14.713C11.5125 16.0255 11.322 17.1475 11.0469 18.0578C10.7718 18.9469 10.3908 19.6455 10.1792 19.963Z" fill="black"/>
<path d="M23.2363 15.3479C22.4533 16.11 21.5221 16.5969 20.4639 16.8509C19.4269 17.1049 18.2206 17.1049 16.9931 16.7874C16.1677 16.5757 15.3423 16.2158 14.517 15.6866C14.6439 15.4749 14.8556 15.2209 15.1095 14.9457C15.3847 14.6705 15.7444 14.3741 16.1466 14.1201C16.9931 13.612 18.1359 13.2733 19.5327 13.5061C21.1411 13.7813 22.3898 14.6493 23.2363 15.3479Z" fill="black"/>
<path d="M13.5432 13.9929C12.9506 13.4424 12.4427 12.8074 12.1253 12.0876C11.3845 10.5634 11.448 8.86987 11.8925 7.43036C12.3157 5.99084 13.0988 4.80537 13.5855 4.17029C13.903 4.42432 14.5167 5.01706 14.9823 5.885C15.4479 6.75294 15.8077 7.91725 15.723 9.29326C15.7019 9.94951 15.5749 10.5211 15.4056 11.008C15.2363 11.516 15.0458 11.9818 14.813 12.3628C14.3263 13.1672 13.8183 13.7177 13.5432 13.9929Z" fill="black"/>
<path d="M26.8552 12.3418C26.4107 12.6382 25.924 12.8287 25.4372 12.998C25.1832 13.0827 24.9504 13.1251 24.6753 13.1674C24.4214 13.2097 24.1674 13.2309 23.9134 13.2521C23.6595 13.2521 23.3843 13.2521 23.1092 13.2097C22.8341 13.1886 22.5801 13.1462 22.305 13.0827C21.7548 12.9557 21.2045 12.7652 20.6543 12.49C19.9347 12.1301 19.2151 11.622 18.5591 10.9658C18.8765 10.6271 19.5326 10.1402 20.4215 9.82263C20.8659 9.67444 21.395 9.58977 21.9452 9.5686C22.5166 9.5686 23.1092 9.67445 23.7441 9.90731C25.1832 10.4577 26.1991 11.5162 26.8552 12.3418Z" fill="black"/>
<path d="M17.755 9.2299C17.2894 8.59482 16.9719 7.91739 16.7815 7.17646C16.3794 5.58874 16.7603 4.02221 17.4375 2.75204C18.0936 1.48187 19.046 0.529238 19.6174 0C19.7444 0.127017 19.8925 0.359882 20.0618 0.635085C20.6332 1.56654 21.2046 3.26011 20.6755 5.22887C20.5274 5.82162 20.3158 6.35085 20.0406 6.79541C19.7867 7.23997 19.5116 7.64219 19.2153 7.95973C18.665 8.61599 18.0724 9.03938 17.755 9.2299Z" fill="black"/>
<path d="M167.846 61.2009C167.592 59.952 167.55 58.7453 167.677 57.6445C167.867 55.9933 168.375 54.5749 169.095 53.4318C169.814 52.2887 170.703 51.3996 171.867 50.7856C172.439 52.0981 173.052 54.0034 172.735 56.0991C172.46 57.9197 171.529 59.211 170.513 59.9731C169.497 60.7987 168.439 61.0951 167.846 61.2009Z" fill="black"/>
<path d="M167.804 62.9153C168.142 63.9314 168.65 64.8629 169.328 65.6673C170.788 67.3609 172.925 68.123 174.957 68.25C176.989 68.4193 178.851 67.9536 179.846 67.6361C179.782 67.4032 179.634 67.0433 179.401 66.5988C179.063 65.9425 178.513 65.1592 177.708 64.4395C176.904 63.7197 175.867 63.0846 174.534 62.6612C173.73 62.4284 172.947 62.259 172.248 62.2379C171.529 62.1743 170.894 62.2167 170.301 62.3014C169.137 62.4284 168.227 62.7459 167.804 62.9153Z" fill="black"/>
<path d="M176.523 47.5677C175.592 48.4569 174.957 49.4942 174.597 50.7643C174.406 51.3994 174.301 52.0768 174.258 52.7966C174.216 53.5163 174.258 54.2784 174.364 55.0617C174.533 56.1413 174.893 57.2421 175.465 58.3429C175.719 58.2159 176.078 58.0042 176.48 57.7079C176.861 57.3903 177.263 57.0093 177.644 56.5012C178.364 55.4851 178.935 54.0667 178.703 52.2885C178.47 50.2774 177.39 48.6474 176.523 47.5677Z" fill="black"/>
<path d="M175.719 60.1208C176.29 60.9888 177.009 61.7297 177.856 62.3013C179.655 63.5079 181.856 63.6773 183.782 63.2962C185.708 62.9152 187.358 62.0472 188.205 61.4757C188.078 61.2852 187.845 60.9676 187.528 60.6289C186.575 59.5705 184.671 58.258 181.962 58.1521C181.136 58.1098 180.396 58.1945 179.718 58.3215C179.38 58.385 179.062 58.4697 178.766 58.5755C178.47 58.6602 178.173 58.766 177.92 58.8719C177.39 59.1047 176.925 59.3376 176.565 59.5705C176.184 59.7821 175.909 59.9938 175.719 60.1208Z" fill="black"/>
<path d="M179.845 43.7357C179.168 44.8154 178.808 45.9585 178.745 47.2498C178.724 47.5674 178.745 47.9061 178.766 48.2448C178.787 48.5835 178.83 48.9222 178.893 49.2609C179.02 49.9595 179.232 50.6581 179.528 51.3779C179.951 52.3516 180.544 53.3043 181.327 54.2145C181.538 54.024 181.835 53.7488 182.131 53.3678C182.427 52.9867 182.702 52.521 182.935 51.9706C183.38 50.8486 183.57 49.3879 182.956 47.7367C182.279 45.8738 180.882 44.5613 179.845 43.7357Z" fill="black"/>
<path d="M182.216 55.6543C182.978 56.3317 183.803 56.8398 184.734 57.1574C185.221 57.3267 185.729 57.4325 186.237 57.4961C186.745 57.5384 187.232 57.5384 187.718 57.4749C188.713 57.369 189.644 57.0727 190.512 56.6705C191.358 56.2682 192.141 55.7602 192.776 55.2733C193.39 54.7652 193.898 54.2995 194.237 53.9396C194.067 53.7914 193.792 53.5374 193.411 53.3045C192.247 52.5213 190.152 51.738 187.591 52.2884C186.025 52.6059 184.861 53.2834 183.951 53.9396C183.507 54.2783 183.147 54.617 182.83 54.9134C182.576 55.2309 182.364 55.5061 182.216 55.6543Z" fill="black"/>
<path d="M182.322 38.8457C181.941 40.01 181.878 41.1955 182.132 42.4233C182.195 42.7197 182.28 43.0372 182.385 43.3548C182.491 43.6723 182.597 43.9687 182.745 44.2862C183.042 44.9002 183.422 45.5352 183.867 46.128C184.481 46.9324 185.285 47.6945 186.258 48.3296C186.407 48.0967 186.618 47.758 186.809 47.3346C186.978 46.9112 187.147 46.4032 187.232 45.8104C187.38 44.6461 187.211 43.2278 186.237 41.8306C185.137 40.264 183.507 39.3749 182.322 38.8457Z" fill="black"/>
<path d="M187.401 49.7058C188.269 50.1504 189.179 50.4256 190.131 50.5103C191.147 50.5949 192.12 50.4468 193.009 50.1081C193.919 49.7905 194.723 49.2824 195.443 48.7109C196.163 48.1393 196.734 47.4831 197.242 46.8903C197.707 46.2764 198.067 45.7048 198.3 45.3026C197.898 45.0697 196.988 44.6675 195.803 44.5405C194.596 44.4135 193.178 44.5617 191.655 45.2814C190.956 45.6201 190.385 46.0012 189.877 46.4246C189.623 46.6363 189.411 46.848 189.2 47.0597C188.988 47.2714 188.798 47.483 188.628 47.6947C188.459 47.9064 188.311 48.1181 188.184 48.3087C188.036 48.4992 187.93 48.6897 187.824 48.8591C187.613 49.2189 187.486 49.5153 187.401 49.7058Z" fill="black"/>
<path d="M183.506 33.8289C183.401 35.0355 183.633 36.1786 184.141 37.2794C184.417 37.8298 184.734 38.3591 185.157 38.8883C185.581 39.4175 186.067 39.9044 186.639 40.349C187.401 40.9629 188.332 41.4921 189.39 41.8732C189.475 41.6191 189.58 41.2593 189.665 40.8147C189.729 40.3702 189.75 39.8409 189.707 39.2905C189.644 38.719 189.475 38.1262 189.199 37.5335C188.882 36.9196 188.48 36.3268 187.866 35.7976C186.448 34.5274 184.755 34.0617 183.506 33.8289Z" fill="black"/>
<path d="M190.935 42.6564C191.867 42.8681 192.777 42.9104 193.687 42.7622C194.66 42.5929 195.528 42.2118 196.29 41.6826C197.073 41.1534 197.708 40.4971 198.237 39.7985C198.787 39.0999 199.168 38.3378 199.485 37.6604C199.782 36.983 199.972 36.3691 200.099 35.9245C199.888 35.861 199.549 35.7975 199.147 35.7551C198.491 35.6916 197.644 35.7128 196.713 35.9668C195.782 36.2209 194.829 36.6866 193.877 37.4699C193.306 37.9568 192.861 38.4648 192.48 38.9517C192.29 39.2058 192.142 39.4598 191.994 39.7138C191.845 39.9679 191.718 40.2007 191.613 40.4336C191.401 40.9205 191.253 41.3651 191.126 41.7461C191.02 42.1272 190.957 42.4447 190.935 42.6564Z" fill="black"/>
<path d="M183.465 28.6001C183.634 29.7856 184.121 30.8017 184.862 31.7331C185.602 32.6434 186.639 33.469 187.909 34.0618C188.777 34.464 189.75 34.7392 190.851 34.845C190.893 34.3158 190.914 33.3844 190.533 32.3471C190.343 31.839 190.047 31.3098 189.644 30.8017C189.221 30.3148 188.692 29.8491 187.994 29.468C186.406 28.6001 184.713 28.5366 183.465 28.6001Z" fill="black"/>
<path d="M192.565 34.9296C193.475 34.9084 194.342 34.7179 195.146 34.358C196.882 33.5959 198.025 32.0717 198.702 30.5052C199.04 29.7219 199.231 28.9387 199.358 28.2189C199.464 27.5203 199.527 26.9064 199.548 26.4407C199.104 26.4407 198.173 26.5042 197.136 26.9276C196.099 27.351 194.977 28.0919 194.067 29.362C193.221 30.5264 192.84 31.6907 192.67 32.6856C192.522 33.6806 192.522 34.5273 192.565 34.9296Z" fill="black"/>
<path d="M182.216 23.4558C182.639 24.5355 183.337 25.4034 184.248 26.102C185.158 26.8006 186.322 27.3298 187.634 27.605C188.544 27.7743 189.517 27.8167 190.554 27.6473C190.512 27.3933 190.448 27.0546 190.321 26.6524C190.194 26.2502 189.962 25.8268 189.687 25.3822C189.39 24.9377 188.988 24.5143 188.501 24.1332C187.993 23.7734 187.38 23.4558 186.66 23.2441C184.946 22.8207 183.359 23.1171 182.216 23.4558Z" fill="black"/>
<path d="M192.226 27.0544C193.072 26.8003 193.834 26.4193 194.512 25.8901C195.951 24.7469 196.67 23.0745 196.924 21.4657C197.178 19.8568 196.967 18.3326 196.776 17.4858C196.586 17.5282 196.289 17.634 195.93 17.761C194.808 18.2268 193.157 19.3699 192.332 21.4868C191.803 22.7782 191.718 23.9425 191.803 24.9163C191.824 25.4032 191.909 25.8477 191.993 26.2076C192.078 26.5675 192.162 26.8639 192.226 27.0544Z" fill="black"/>
<path d="M179.972 18.9889C180.628 19.8991 181.433 20.6189 182.47 21.0634C182.956 21.2963 183.507 21.4868 184.12 21.5926C184.692 21.7197 185.327 21.762 185.983 21.7408C186.872 21.6985 187.803 21.5291 188.734 21.1693C188.649 20.9364 188.501 20.6189 188.29 20.2802C188.078 19.9415 187.803 19.5604 187.422 19.2217C187.062 18.8618 186.596 18.5443 186.046 18.3114C185.496 18.0574 184.861 17.9092 184.12 17.8669C182.448 17.8245 180.967 18.4596 179.972 18.9889Z" fill="black"/>
<path d="M190.131 19.963C190.872 19.5396 191.507 19.0104 192.015 18.3541C193.115 16.9781 193.412 15.2422 193.306 13.6757C193.242 12.8924 193.073 12.1727 192.904 11.5164C192.713 10.8813 192.481 10.3521 192.311 9.97107C191.93 10.1616 191.19 10.6273 190.512 11.4106C189.835 12.1938 189.242 13.2735 189.01 14.713C188.798 16.0255 188.989 17.1475 189.264 18.0578C189.56 18.9469 189.92 19.6455 190.131 19.963Z" fill="black"/>
<path d="M177.095 15.3479C177.878 16.11 178.809 16.5969 179.867 16.8509C180.904 17.1049 182.111 17.1049 183.338 16.7874C184.163 16.5757 184.989 16.2158 185.814 15.6866C185.687 15.4749 185.476 15.2209 185.222 14.9457C184.946 14.6705 184.587 14.3741 184.185 14.1201C183.338 13.612 182.195 13.2733 180.798 13.5061C179.19 13.7813 177.92 14.6493 177.095 15.3479Z" fill="black"/>
<path d="M186.766 13.9929C187.359 13.4424 187.867 12.8074 188.184 12.0876C188.925 10.5634 188.861 8.86987 188.417 7.43036C187.994 5.99084 187.211 4.80537 186.724 4.17029C186.407 4.42432 185.793 5.01706 185.327 5.885C184.862 6.75294 184.502 7.91725 184.586 9.29326C184.608 9.94951 184.735 10.5211 184.904 11.008C185.073 11.516 185.264 11.9818 185.497 12.3628C185.983 13.1672 186.491 13.7177 186.766 13.9929Z" fill="black"/>
<path d="M173.454 12.3418C173.898 12.6382 174.385 12.8287 174.872 12.998C175.126 13.0827 175.359 13.1251 175.634 13.1674C175.888 13.2097 176.142 13.2309 176.396 13.2521C176.65 13.2521 176.925 13.2521 177.2 13.2097C177.454 13.1886 177.729 13.1462 178.004 13.0827C178.554 12.9557 179.105 12.7652 179.655 12.49C180.374 12.1301 181.094 11.622 181.75 10.9658C181.433 10.6271 180.777 10.1402 179.888 9.82263C179.443 9.67444 178.914 9.58977 178.364 9.5686C177.792 9.5686 177.2 9.67445 176.565 9.90731C175.147 10.4577 174.11 11.5162 173.454 12.3418Z" fill="black"/>
<path d="M182.554 9.2299C183.02 8.59482 183.337 7.91739 183.528 7.17646C183.93 5.58874 183.549 4.02221 182.872 2.75204C182.216 1.48187 181.263 0.529238 180.692 0C180.565 0.127017 180.417 0.359882 180.248 0.635085C179.676 1.56654 179.105 3.26011 179.634 5.22887C179.782 5.82162 179.994 6.35085 180.269 6.79541C180.523 7.23997 180.798 7.64219 181.094 7.95973C181.666 8.61599 182.237 9.03938 182.554 9.2299Z" fill="black"/>
</svg>
