<svg width="40" height="40" viewBox="0 0 40 40" fill="none" xmlns="http://www.w3.org/2000/svg">
<rect x="1" y="1.27661" width="38" height="38" rx="19" stroke="black" stroke-width="2"/>
<path d="M12.2929 19.5695C11.9024 19.96 11.9024 20.5932 12.2929 20.9837L18.6569 27.3477C19.0474 27.7382 19.6805 27.7382 20.0711 27.3477C20.4616 26.9572 20.4616 26.324 20.0711 25.9335L14.4142 20.2766L20.0711 14.6198C20.4616 14.2292 20.4616 13.5961 20.0711 13.2055C19.6805 12.815 19.0474 12.815 18.6569 13.2055L12.2929 19.5695ZM13 21.2766H28V19.2766H13V21.2766Z" fill="black"/>
</svg>
